{
  "cordova-plugin-battery-status": {
    "source": {
      "type": "registry",
      "id": "cordova-plugin-battery-status@~1.2.4"
    },
    "is_top_level": true,
    "variables": {}
  },
  "cordova-plugin-camera": {
    "source": {
      "type": "registry",
      "id": "cordova-plugin-camera@~2.4.1"
    },
    "is_top_level": true,
    "variables": {}
  },
  "cordova-plugin-compat": {
    "source": {
      "type": "registry",
      "id": "cordova-plugin-compat@^1.1.0"
    },
    "is_top_level": false,
    "variables": {}
  },
  "cordova-plugin-media-capture": {
    "source": {
      "type": "registry",
      "id": "cordova-plugin-media-capture@~1.4.3"
    },
    "is_top_level": true,
    "variables": {}
  },
  "cordova-plugin-file": {
    "source": {
      "type": "registry",
      "id": "cordova-plugin-file@^4.0.0"
    },
    "is_top_level": false,
    "variables": {}
  },
  "cordova-plugin-device": {
    "source": {
      "type": "registry",
      "id": "cordova-plugin-device@~1.1.6"
    },
    "is_top_level": true,
    "variables": {}
  },
  "cordova-plugin-dialogs": {
    "source": {
      "type": "registry",
      "id": "cordova-plugin-dialogs@~1.3.3"
    },
    "is_top_level": true,
    "variables": {}
  },
  "cordova-plugin-geolocation": {
    "source": {
      "type": "registry",
      "id": "cordova-plugin-geolocation@~2.4.3"
    },
    "is_top_level": true,
    "variables": {}
  },
  "cordova-plugin-globalization": {
    "source": {
      "type": "registry",
      "id": "cordova-plugin-globalization@~1.0.7"
    },
    "is_top_level": true,
    "variables": {}
  },
  "cordova-plugin-inappbrowser": {
    "source": {
      "type": "registry",
      "id": "cordova-plugin-inappbrowser@~1.7.1"
    },
    "is_top_level": true,
    "variables": {}
  },
  "cordova-plugin-network-information": {
    "source": {
      "type": "registry",
      "id": "cordova-plugin-network-information@~1.3.3"
    },
    "is_top_level": true,
    "variables": {}
  },
  "cordova-plugin-vibration": {
    "source": {
      "type": "registry",
      "id": "cordova-plugin-vibration@~2.1.5"
    },
    "is_top_level": true,
    "variables": {}
  },
  "cordova-plugin-whitelist": {
    "source": {
      "type": "registry",
      "id": "cordova-plugin-whitelist@1.3.4"
    },
    "is_top_level": true,
    "variables": {}
  },
  "phonegap-plugin-barcodescanner": {
    "source": {
      "type": "registry",
      "id": "phonegap-plugin-barcodescanner@8.1.0"
    },
    "is_top_level": true,
    "variables": {
      "CAMERA_USAGE_DESCRIPTION": "To scan barcodes"
    }
  }
}